{
  "project_info": {
    "project_number": "979966595568",
    "firebase_url": "https://android-calendarbb.firebaseio.com",
    "project_id": "android-calendarbb",
    "storage_bucket": "android-calendarbb.appspot.com"
  },
  "client": [
    {
      "client_info": {
        "mobilesdk_app_id": "1:979966595568:android:0239d0c6d3e64b96",
        "android_client_info": {
          "package_name": "com.wams.calendarbeisbol"
        }
      },
      "oauth_client": [
        {
          "client_id": "979966595568-j4adhbgq75stbcghdebj944hc51b7f6b.apps.googleusercontent.com",
          "client_type": 3
        }
      ],
      "api_key": [
        {
          "current_key": "AIzaSyCHzaMlqwQrCMBEClx6D0C2GT_EKJuO7uQ"
        }
      ],
      "services": {
        "analytics_service": {
          "status": 1
        },
        "appinvite_service": {
          "status": 1,
          "other_platform_oauth_client": []
        },
        "ads_service": {
          "status": 2
        }
      }
    }
  ],
  "configuration_version": "1"
}